timestamp;valor
1.531241293e+12;1,00066711141
1.531241308e+12;0,86782376502
1.531241323e+12;78,1187458306
1.531241338e+12;94,8666666667
1.531241353e+12;96,7311541027
1.531241368e+12;95,6666666667
1.531241383e+12;96,2666666667
1.531241398e+12;68,6706746827
1.531241413e+12;30,4493628437
1.531241428e+12;35,5421686747
