timestamp;valor
1.53124129e+12;1,06970486472
1.531241305e+12;1,13829016462
1.53124132e+12;28,4065765308
1.531241335e+12;46,0026156942
1.53124135e+12;49,0692823608
1.531241365e+12;46,4359490275
1.53124138e+12;48,1374813393
1.531241395e+12;48,5346815158
1.53124141e+12;48,2041035911
1.531241425e+12;45,0919276514
