timestamp;valor
1.531241298e+12;3,73309231089
1.531241313e+12;60,6371481234
1.531241329e+12;32,5688785508
1.531241343e+12;718,993177549
1.531241359e+12;459,464067755
1.531241374e+12;75,861605705
1.531241388e+12;767,632260321
1.531241403e+12;270,610787921
1.531241418e+12;41,6543558459
1.531241433e+12;12,5039662929
