data;valor
10/07/2018 13:48:12;36,0572750998
10/07/2018 13:48:27;43,543122751
10/07/2018 13:48:42;95,7074350787
10/07/2018 13:48:57;377,843120742
10/07/2018 13:49:12;673,478961298
10/07/2018 13:49:27;223,395645176
10/07/2018 13:49:42;1160,53560551
10/07/2018 13:49:57;1202,14746918
10/07/2018 13:50:12;986,047194544
10/07/2018 13:50:27;976,609570782
