data;valor
10/07/2018 13:48:20;39,1855807744
10/07/2018 13:48:35;82,3097463284
10/07/2018 13:48:50;93,3288859239
10/07/2018 13:49:05;94,3295530354
10/07/2018 13:49:20;94,4629753169
10/07/2018 13:49:35;94,4703530979
10/07/2018 13:49:50;96,4643095397
10/07/2018 13:50:05;57,3342263898
10/07/2018 13:50:20;60,6141522029
