data;valor
10/07/2018 13:48:12;21,4607716518
10/07/2018 13:48:27;28,1362076471
10/07/2018 13:48:42;42,839333421
10/07/2018 13:48:57;62,0955804435
10/07/2018 13:49:12;72,5847681627
10/07/2018 13:49:27;79,4808366329
10/07/2018 13:49:42;85,8379054709
10/07/2018 13:49:57;93,6990860885
10/07/2018 13:50:12;75,4594114197
10/07/2018 13:50:27;65,996885326
