data;valor
10/07/2018 13:48:17;3734981290,67
10/07/2018 13:48:32;3754894677,33
10/07/2018 13:48:47;3777600853,33
10/07/2018 13:49:02;3779254954,67
10/07/2018 13:49:17;3780204544,0
10/07/2018 13:49:32;3781150720,0
10/07/2018 13:49:47;3783004160,0
10/07/2018 13:50:02;3783317504,0
10/07/2018 13:50:17;3783860224,0
10/07/2018 13:50:32;3783976960,0
