data;valor
10/07/2018 13:48:12;3775299584,0
10/07/2018 13:48:27;3776329728,0
10/07/2018 13:48:42;3718609578,67
10/07/2018 13:48:57;3649897813,33
10/07/2018 13:49:12;3261681664,0
10/07/2018 13:49:27;3405796010,67
10/07/2018 13:49:42;3477198165,33
10/07/2018 13:49:57;3418443776,0
10/07/2018 13:50:12;3317966848,0
10/07/2018 13:50:27;3218941952,0
