minutos;valor
0.0;2,40201191619
15.0;4,53335800502
30.0;78,9369842671
45.0;361,78950664
59.0;878,939396101
74.0;5,32660355044
89.0;206,120518467
105.0;176,634290493
120.0;22,0420094951
135.0;43,7723611575
