timestamp;valor
1.531240179e+12;29723,6808302
1.531240193e+12;31325,8453731
1.531240208e+12;27237,871262
1.531240223e+12;25954,235135
1.531240239e+12;31885,6337633
1.531240254e+12;29919,5199797
1.531240268e+12;26802,3329648
1.531240283e+12;32955,3469213
1.531240298e+12;28081,1657693
1.531240313e+12;29317,1004918
1.531240328e+12;25995,2360614
1.531240343e+12;26950,2536417
