timestamp;valor
1.53124018e+12;47,3168749899
1.531240195e+12;31,6512221991
1.53124021e+12;350,215237769
1.531240225e+12;168,568580184
1.53124024e+12;666,047349117
1.531240255e+12;337,032447259
1.53124027e+12;478,606221427
1.531240285e+12;770,462659451
1.5312403e+12;145,433861078
1.531240315e+12;346,049103476
1.53124033e+12;59,7271939012
