data;valor
10/07/2018 13:29:40;16089,2071708
10/07/2018 13:29:55;50220,5951503
10/07/2018 13:30:10;305295,325346
10/07/2018 13:30:25;32845,9109622
10/07/2018 13:30:40;96849,4481305
10/07/2018 13:30:55;23619,2519544
10/07/2018 13:31:10;45046,0666502
10/07/2018 13:31:25;25980,2585102
10/07/2018 13:31:40;631610,463674
10/07/2018 13:31:55;8662179,15458
10/07/2018 13:32:10;23841406,8797
