data;valor
10/07/2018 13:29:40;1,33422281521
10/07/2018 13:29:55;57,0286475683
10/07/2018 13:30:10;93,9292861908
10/07/2018 13:30:25;97,0666666667
10/07/2018 13:30:40;95,4
10/07/2018 13:30:55;96,2666666667
10/07/2018 13:31:10;96,0666666667
10/07/2018 13:31:25;94,6666666667
10/07/2018 13:31:40;95,6
10/07/2018 13:31:55;93,2045303131
10/07/2018 13:32:10;75,3507014028
