data;valor
10/07/2018 13:29:40;22836,2077517
10/07/2018 13:29:55;35761,6135677
10/07/2018 13:30:10;14879,5664736
10/07/2018 13:30:25;39953,5489076
10/07/2018 13:30:40;37689,4002975
10/07/2018 13:30:55;11646,5217713
10/07/2018 13:31:10;77723,528994
10/07/2018 13:31:25;16011,4398467
10/07/2018 13:31:40;578144,446622
10/07/2018 13:31:55;8649421,75356
10/07/2018 13:32:10;18212895,9158
