minutos;valor
0.0;35,2990862573
15.0;24,8439792794
30.0;10,1365787601
45.0;8,06533458494
60.0;10,6642312207
75.0;7,53236043755
89.0;10,6681607819
104.0;7,26551461294
120.0;11,1992509831
135.0;7,93223280558
150.0;10,2660888586
164.0;24,9327249426
