minutos;valor
0.0;2,13314203918
15.0;72,6791680867
29.0;84,5546132639
44.0;1038,83435811
59.0;977,818522939
74.0;777,297845632
89.0;752,276309001
104.0;240,821550998
119.0;1164,08392118
134.0;1053,7425748
149.0;922,797314203
165.0;487,93418929
