timestamp;valor
1.531252125e+12;1766,84332051
1.531252141e+12;4155,26999041
1.531252156e+12;19830,4421767
1.531252171e+12;2409,4463173
1.531252186e+12;8777,16788569
1.531252201e+12;3758,06831265
1.531252216e+12;45644,6869032
1.531252231e+12;13271,4102239
1.531252246e+12;1713422,16193
1.531252261e+12;5243292,80691
1.531252276e+12;9329844,06688
1.531252291e+12;74490,3816158
