timestamp;valor
1.531252125e+12;1007,05501715
1.53125214e+12;3087,97460252
1.531252156e+12;11197,462821
1.531252171e+12;3194,02056881
1.531252186e+12;19723,191096
1.531252201e+12;3046,4953064
1.531252216e+12;72780,1947894
1.531252231e+12;18554,2820337
1.531252246e+12;1538749,73551
1.531252261e+12;5388478,50084
1.531252276e+12;5514314,84905
1.53125229e+12;313434,069177
