timestamp;valor
1.53125213e+12;2,26689499635
1.531252145e+12;2,39949338401
1.531252161e+12;1,61578499852
1.531252176e+12;5,56665789784
1.531252191e+12;3,21221427334
1.531252206e+12;9,52777248252
1.531252221e+12;28,8216428452
1.531252236e+12;11,7488682424
1.531252251e+12;4,54902208523
1.531252266e+12;8,01356734552
1.531252281e+12;15,5628305016
1.531252295e+12;9,98421661886
