timestamp;valor
1.531252125e+12;2,8609895658
1.53125214e+12;0,907258064516
1.531252155e+12;48,8769694938
1.53125217e+12;89,2666666667
1.531252185e+12;80,7602534178
1.5312522e+12;85,0716427857
1.531252215e+12;89,72990997
1.53125223e+12;83,717820127
1.531252245e+12;84,1666666667
1.53125226e+12;87,2867179659
1.531252275e+12;53,1555855552
1.53125229e+12;94,2275608942
