timestamp;valor
1.531252136e+12;36,396915177
1.531252151e+12;14,3878818054
1.531252166e+12;5,31369702423
1.531252181e+12;5,62630231852
1.531252196e+12;7,06624799417
1.531252211e+12;4,59572827837
1.531252226e+12;10,0762867896
1.531252241e+12;7,06330270938
1.531252256e+12;29,218748784
1.531252271e+12;8,79603530735
1.531252286e+12;13,794700621
1.531252301e+12;25,6146067696
