data;valor
10/07/2018 16:48:45;5493202944,0
10/07/2018 16:49:00;5486981120,0
10/07/2018 16:49:16;5957054464,0
10/07/2018 16:49:31;6210723840,0
10/07/2018 16:49:46;7530561536,0
10/07/2018 16:50:01;7539884032,0
10/07/2018 16:50:16;7532662784,0
10/07/2018 16:50:31;5033025536,0
10/07/2018 16:50:46;6033743872,0
10/07/2018 16:51:01;5213679616,0
10/07/2018 16:51:16;5450272768,0
10/07/2018 16:51:31;5450833920,0
