minutos;valor
0.0;1007,05501715
14.0;3087,97460252
29.0;11197,462821
44.0;3194,02056881
59.0;19723,191096
74.0;3046,4953064
89.0;72780,1947894
104.0;18554,2820337
119.0;1538749,73551
134.0;5388478,50084
150.0;5514314,84905
165.0;313434,069177
