timestamp;valor
1.531254997e+12;4,93529265453
1.531255012e+12;40,3848429316
1.531255027e+12;56,1831946335
1.531255042e+12;1,33986579553
1.531255057e+12;7,45885735728
1.531255072e+12;42,8543351674
1.531255087e+12;62,2784313755
1.531255102e+12;79,8631335315
