data;valor
10/07/2018 17:36:35;59,2077338438
10/07/2018 17:36:50;13,6493282076
10/07/2018 17:37:05;2,65282439234
10/07/2018 17:37:20;9,22128257087
10/07/2018 17:37:35;40,3362643526
10/07/2018 17:37:50;55,8957154121
10/07/2018 17:38:05;36,9006434474
10/07/2018 17:38:20;113,849686554
