data;valor
10/07/2018 17:36:31;5209350144,0
10/07/2018 17:36:46;5213073408,0
10/07/2018 17:37:01;5215309824,0
10/07/2018 17:37:16;5216706560,0
10/07/2018 17:37:31;5218799616,0
10/07/2018 17:37:46;5219336192,0
10/07/2018 17:38:01;5219901440,0
10/07/2018 17:38:16;5220593664,0
