timestamp;valor
1.53125111e+12;41867,3045446
1.531251125e+12;22628,6386465
1.53125114e+12;55366,4879164
1.531251155e+12;41387,8882934
1.53125117e+12;61672,8615182
1.531251185e+12;19916,0815286
1.5312512e+12;39763,7840234
1.531251215e+12;21565187,9921
