data;valor
10/07/2018 16:31:50;5445906432,0
10/07/2018 16:32:05;5924696064,0
10/07/2018 16:32:20;6590859264,0
10/07/2018 16:32:35;6152437760,0
10/07/2018 16:32:50;5470590976,0
10/07/2018 16:33:05;6450427904,0
10/07/2018 16:33:20;5799763968,0
10/07/2018 16:33:35;6094499840,0
