data;valor
10/07/2018 16:31:40;5,06845937324
10/07/2018 16:31:55;27,2119816666
10/07/2018 16:32:10;2,86807073877
10/07/2018 16:32:25;8,92742169095
10/07/2018 16:32:40;1,53316325697
10/07/2018 16:32:55;5,87088990531
10/07/2018 16:33:10;7,20187548639
10/07/2018 16:33:25;12,3349675174
10/07/2018 16:33:40;17,4034413412
