timestamp;valor
1.531265557e+12;1,60015538771
1.531265572e+12;5,26580087062
1.531265588e+12;1,79175716191
1.531265603e+12;4,25438645887
1.531265618e+12;2,8768106629
1.531265632e+12;5,95672987577
1.531265647e+12;6,04302940826
1.531265662e+12;19,0200057086
1.531265677e+12;8,12082504266
1.531265692e+12;17,3474982581
