timestamp;valor
1.531265557e+12;7501,37097136
1.531265572e+12;16868,4419759
1.531265587e+12;12677,348301
1.531265602e+12;11005,7445773
1.531265617e+12;38984,1957161
1.531265632e+12;19738,7457078
1.531265647e+12;16849,024795
1.531265662e+12;11160,1562927
1.531265677e+12;14374,2813461
1.531265692e+12;15738,3315648
