timestamp;valor
1.531265557e+12;1,51464153484
1.531265572e+12;0,874243443174
1.531265587e+12;41,4961422341
1.531265602e+12;87,8414390406
1.531265617e+12;84,1894596398
1.531265632e+12;90,1366211263
1.531265647e+12;92,6902536716
1.531265662e+12;86,1965240642
1.531265677e+12;58,4816929795
1.531265692e+12;40,2558061259
