data;valor
10/07/2018 20:32:47;6352,44895258
10/07/2018 20:33:03;13525,5706104
10/07/2018 20:33:18;4855,20846122
10/07/2018 20:33:33;9541,90482587
10/07/2018 20:33:48;17147,6435962
10/07/2018 20:34:03;143874,635406
10/07/2018 20:34:18;6095362,56622
10/07/2018 20:34:33;14723253,7955
10/07/2018 20:34:47;549177,555491
