data;valor
10/07/2018 20:32:37;1007,0123684
10/07/2018 20:32:52;10110,4583489
10/07/2018 20:33:08;25768,9299113
10/07/2018 20:33:23;2390,97580098
10/07/2018 20:33:38;8691,97378687
10/07/2018 20:33:52;14729,1934074
10/07/2018 20:34:07;78295,380361
10/07/2018 20:34:22;977251,292216
10/07/2018 20:34:37;3189147,24386
10/07/2018 20:34:52;13564,2831672
