data;valor
10/07/2018 20:32:37;1,60015538771
10/07/2018 20:32:52;5,26580087062
10/07/2018 20:33:08;1,79175716191
10/07/2018 20:33:23;4,25438645887
10/07/2018 20:33:38;2,8768106629
10/07/2018 20:33:52;5,95672987577
10/07/2018 20:34:07;6,04302940826
10/07/2018 20:34:22;19,0200057086
10/07/2018 20:34:37;8,12082504266
10/07/2018 20:34:52;17,3474982581
