data;valor
10/07/2018 20:32:37;10,1182197497
10/07/2018 20:32:52;59,0723055935
10/07/2018 20:33:07;36,7733058136
10/07/2018 20:33:22;2,09716882209
10/07/2018 20:33:37;5,67624386826
10/07/2018 20:33:52;17,9166666667
10/07/2018 20:34:07;42,3565784954
10/07/2018 20:34:22;14,9565217391
10/07/2018 20:34:37;14,7671994441
10/07/2018 20:34:52;11,5183246073
