minutos;valor
0.0;1007,0123684
15.0;10110,4583489
30.0;25768,9299113
45.0;2390,97580098
60.0;8691,97378687
74.0;14729,1934074
89.0;78295,380361
104.0;977251,292216
120.0;3189147,24386
135.0;13564,2831672
