minutos;valor
0.0;10,1182197497
15.0;59,0723055935
30.0;36,7733058136
45.0;2,09716882209
60.0;5,67624386826
75.0;17,9166666667
90.0;42,3565784954
105.0;14,9565217391
120.0;14,7671994441
135.0;11,5183246073
