timestamp;valor
1.531249504e+12;21,7245255947
1.531249519e+12;7,13553034293
1.531249534e+12;8,80069280356
1.531249549e+12;5,32856284829
1.531249564e+12;2,13446695347
1.531249579e+12;3,1370396035
1.531249594e+12;5,59721964665
1.531249609e+12;2,73237004756
1.531249624e+12;12,8043287288
1.531249639e+12;3,3978282409
1.531249654e+12;8,27008253678
1.531249669e+12;4,99853794265
1.531249684e+12;1,99943876126
1.531249699e+12;6,06835111009
1.531249714e+12;5,26476518325
1.531249729e+12;7,06770038677
