minutos;valor
0.0;7646945280,0
15.0;7647019008,0
30.0;7646605312,0
45.0;7716384768,0
60.0;5502980096,0
75.0;7720927232,0
90.0;5890777088,0
105.0;7177248768,0
120.0;7462191104,0
135.0;6143053824,0
150.0;7740440576,0
165.0;6620549120,0
180.0;5428305920,0
195.0;5481914368,0
210.0;6480531456,0
225.0;6565900288,0
