data;valor
09/07/2018 12:42:08;2803605504,0
09/07/2018 12:42:22;2851205120,0
09/07/2018 12:42:38;2855735296,0
09/07/2018 12:42:52;2856402944,0
09/07/2018 12:43:08;2858733568,0
09/07/2018 12:43:22;2859741184,0
09/07/2018 12:43:38;2865922048,0
09/07/2018 12:43:52;2896723968,0
09/07/2018 12:44:08;2897866752,0
09/07/2018 12:44:22;2915983360,0
09/07/2018 12:44:38;2915831808,0
09/07/2018 12:44:52;2916466688,0
09/07/2018 12:45:08;2927144960,0
09/07/2018 12:45:22;2929991680,0
09/07/2018 12:45:38;2930470912,0
09/07/2018 12:45:52;2931032064,0
09/07/2018 12:46:08;2948653056,0
09/07/2018 12:46:22;2950434816,0
09/07/2018 12:46:38;3008839680,0
09/07/2018 12:46:52;2952056832,0
09/07/2018 12:47:08;2953224192,0
09/07/2018 12:47:22;2956861440,0
09/07/2018 12:47:38;3008360448,0
09/07/2018 12:47:52;2949951488,0
09/07/2018 12:48:08;2948845568,0
09/07/2018 12:48:22;2952749056,0
09/07/2018 12:48:38;2947555328,0
09/07/2018 12:48:52;2948423680,0
09/07/2018 12:49:08;2949234688,0
09/07/2018 12:49:22;2950664192,0
09/07/2018 12:49:38;2949685248,0
09/07/2018 12:49:52;2951065600,0
09/07/2018 12:50:08;2951340032,0
09/07/2018 12:50:22;2954760192,0
09/07/2018 12:50:38;2953515008,0
09/07/2018 12:50:52;2954080256,0
09/07/2018 12:51:08;2954174464,0
09/07/2018 12:51:22;3019001856,0
09/07/2018 12:51:38;2955407360,0
09/07/2018 12:51:52;2956017664,0
09/07/2018 12:52:08;2956070912,0
