minutos;valor
0.0;11,9401963196
16.0;29,9867737142
30.0;7,67405741976
46.0;4,29768802477
60.0;5,33495658144
76.0;4,26726036323
90.0;6,06379686908
106.0;26,7455022315
120.0;3,60002287456
136.0;5,60019159973
150.0;4,13263896751
166.0;3,73246270181
180.0;5,80188920848
196.0;5,39835200318
210.0;5,46825026703
226.0;3,86665039423
240.0;12,5331951241
256.0;4,92598757074
270.0;6,71978375022
286.0;4,86539294184
300.0;4,66653100514
316.0;5,23496185493
330.0;5,24968082125
346.0;6,12029896531
360.0;7,20213017068
376.0;4,93218213178
390.0;4,33485249485
406.0;4,53419730649
420.0;5,26320198633
436.0;4,87009174011
450.0;4,06645266504
466.0;4,93332205669
480.0;6,53265841569
496.0;5,39943634206
510.0;4,86678153104
526.0;5,0003645103
540.0;4,80015726004
556.0;5,0949664589
570.0;3,22458707824
586.0;8,46673188791
600.0;1,33273471699
