data;valor
10/07/2018 19:27:49;9651281920,0
10/07/2018 19:28:04;9722322944,0
10/07/2018 19:28:19;9649881088,0
10/07/2018 19:28:34;9652256768,0
10/07/2018 19:28:49;9650245632,0
10/07/2018 19:29:04;9658740736,0
10/07/2018 19:29:19;9657659392,0
10/07/2018 19:29:34;9658208256,0
10/07/2018 19:29:49;9665503232,0
10/07/2018 19:30:04;9686581248,0
10/07/2018 19:30:19;9703165952,0
10/07/2018 19:30:34;9703079936,0
10/07/2018 19:30:49;9705074688,0
10/07/2018 19:31:04;9711505408,0
10/07/2018 19:31:19;9702883328,0
10/07/2018 19:31:34;9699168256,0
