data;valor
10/07/2018 19:27:49;12367,9199643
10/07/2018 19:28:04;5775,58428874
10/07/2018 19:28:19;6579,47393783
10/07/2018 19:28:34;4945,04544278
10/07/2018 19:28:49;13030,7129989
10/07/2018 19:29:04;16050,4311215
10/07/2018 19:29:19;5361,04006345
10/07/2018 19:29:34;8893,9955708
10/07/2018 19:29:49;5492,4485324
10/07/2018 19:30:04;16226,8238517
10/07/2018 19:30:19;10897,2317001
10/07/2018 19:30:34;6034,27809822
10/07/2018 19:30:49;9246,51788815
10/07/2018 19:31:04;22742,2565707
10/07/2018 19:31:19;13038,3102544
10/07/2018 19:31:34;8160,74081368
