timestamp;valor
1.531264889e+12;6393466880,0
1.531264905e+12;6556774400,0
1.53126492e+12;7682211840,0
1.531264934e+12;8863309824,0
1.53126495e+12;11596697600,0
1.531264964e+12;11691667456,0
1.53126498e+12;11753205760,0
1.531264994e+12;6823866368,0
1.531265009e+12;7306801152,0
1.531265024e+12;7371018240,0
1.531265039e+12;6889844736,0
1.531265054e+12;6262652928,0
1.531265069e+12;6073413632,0
1.531265084e+12;6010019840,0
