timestamp;valor
1.531264886e+12;9767432192,0
1.531264901e+12;9757380608,0
1.531264916e+12;9890955264,0
1.531264931e+12;9829814272,0
1.531264946e+12;9832976384,0
1.531264961e+12;9835114496,0
1.531264976e+12;9793744896,0
1.531264991e+12;9786585088,0
1.531265006e+12;9786683392,0
1.531265021e+12;9788448768,0
1.531265036e+12;9799135232,0
1.531265051e+12;9812983808,0
1.531265066e+12;9815592960,0
1.531265081e+12;9840091136,0
