timestamp;valor
1.531264885e+12;3011,02639304
1.5312649e+12;1888,85020337
1.531264916e+12;15276,4216001
1.531264931e+12;3086,17516681
1.531264946e+12;803091,208455
1.531264962e+12;4105879,39709
1.531264975e+12;3922418,14473
1.531264991e+12;425867,893523
1.531265006e+12;16748,9968974
1.531265021e+12;1479127,34754
1.531265035e+12;1145414,88494
1.53126505e+12;3764798,30456
1.531265065e+12;141260,628168
1.53126508e+12;3075,62541933
