timestamp;valor
1.531264886e+12;17,5314601138
1.531264901e+12;17,3950928921
1.531264916e+12;11,523713821
1.531264931e+12;2,40323540858
1.531264946e+12;5,26274931655
1.531264961e+12;3,1335028313
1.531264976e+12;71,6340296154
1.531264991e+12;15,7424339394
1.531265006e+12;17,1506680137
1.531265021e+12;6,66236039346
1.531265036e+12;32,6529317635
1.531265051e+12;51,8934579337
1.531265066e+12;17,2655471844
1.531265081e+12;5,31451555148
