timestamp;valor
1.531264889e+12;6555095040,0
1.531264903e+12;6554857472,0
1.531264919e+12;6554402816,0
1.531264934e+12;6555054080,0
1.531264949e+12;6554615808,0
1.531264964e+12;6554869760,0
1.531264979e+12;6123020288,0
1.531264994e+12;6171480064,0
1.531265009e+12;6316580864,0
1.531265024e+12;6792970240,0
1.531265039e+12;7204102144,0
1.531265053e+12;7813877760,0
1.531265069e+12;7197859840,0
1.531265084e+12;6153490432,0
