timestamp;valor
1.531264885e+12;98,4333333333
1.5312649e+12;96,967172138
1.531264915e+12;87,3854357607
1.53126493e+12;89,7649608268
1.531264945e+12;85,55
1.53126496e+12;90,4015997334
1.531264975e+12;89,1315219203
1.53126499e+12;76,1666666667
1.531265005e+12;86,1538461538
1.53126502e+12;92,8666666667
1.531265035e+12;78,8060697015
1.53126505e+12;74,4790798466
1.531265065e+12;99,4831610537
1.53126508e+12;99,6329050559
