data;valor
10/07/2018 20:21:25;99,7332444148
10/07/2018 20:21:40;97,9
10/07/2018 20:21:55;86,0189968339
10/07/2018 20:22:10;87,9873375541
10/07/2018 20:22:25;90,6286476572
10/07/2018 20:22:40;82,6195634061
10/07/2018 20:22:55;90,1150191699
10/07/2018 20:23:10;90,101649725
10/07/2018 20:23:25;92,5333333333
10/07/2018 20:23:40;93,0108423686
10/07/2018 20:23:55;87,2952189903
10/07/2018 20:24:10;92,5141713905
10/07/2018 20:24:25;98,4830805134
10/07/2018 20:24:40;99,6833861023
