minutos;valor
0.0;19531,5725227
15.0;9261,37570734
31.0;1319,56496138
45.0;1170,46958484
60.0;1174,37112643
75.0;2070,7851477
90.0;33044,518849
105.0;30367,2196248
120.0;7289,65558498
135.0;348536,916875
150.0;8013,40460945
165.0;5631343,26485
181.0;9242,66043669
195.0;41444,7660282
