minutos;valor
0.0;7,05543785437
15.0;2,28536404173
31.0;6,54210801218
45.0;2,14373771006
60.0;6,18283439026
75.0;2,06819411073
90.0;6,28848420905
105.0;8,10807745786
120.0;4,00588060525
135.0;2,84710608864
150.0;8,10365915509
165.0;3,37352544497
181.0;7,96502731692
195.0;24,6392968164
