data;valor
10/07/2018 14:33:18;0,80971659919
10/07/2018 14:33:34;1,08254397835
10/07/2018 14:33:48;1,0781671159
10/07/2018 14:34:04;65,8634538153
10/07/2018 14:34:18;85,1432378414
10/07/2018 14:34:34;92,7903871829
10/07/2018 14:34:48;89,6069287142
10/07/2018 14:35:04;86,3909272849
10/07/2018 14:35:18;92,871419054
10/07/2018 14:35:34;90,0600400267
10/07/2018 14:35:48;87,7251501001
10/07/2018 14:36:04;90,473017988
10/07/2018 14:36:18;90,9272848566
10/07/2018 14:36:34;88,0
10/07/2018 14:36:48;86,5333333333
10/07/2018 14:37:04;83,5890593729
10/07/2018 14:37:18;84,1333333333
10/07/2018 14:37:34;86,2
10/07/2018 14:37:48;90,0666666667
10/07/2018 14:38:04;89,1927951968
10/07/2018 14:38:18;87,4666666667
10/07/2018 14:38:34;89,4
10/07/2018 14:38:48;89,7931954636
10/07/2018 14:39:04;86,6666666667
10/07/2018 14:39:18;87,0752831446
10/07/2018 14:39:34;87,0493991989
10/07/2018 14:39:48;88,6075949367
10/07/2018 14:40:04;91,7278185457
10/07/2018 14:40:18;69,9061662198
