data;valor
10/07/2018 14:33:14;1757,2202153
10/07/2018 14:33:28;18710,1175267
10/07/2018 14:33:44;4965,52826035
10/07/2018 14:33:58;28679,4602179
10/07/2018 14:34:14;303895,163598
10/07/2018 14:34:28;7351,50494119
10/07/2018 14:34:44;20631,1003207
10/07/2018 14:34:58;4992,60133077
10/07/2018 14:35:14;338343,417898
10/07/2018 14:35:28;286825,296346
10/07/2018 14:35:44;10999,3265411
10/07/2018 14:35:58;4079,01228099
10/07/2018 14:36:14;382138,203975
10/07/2018 14:36:28;106379,033814
10/07/2018 14:36:44;91450,9115981
10/07/2018 14:36:58;425674,339974
10/07/2018 14:37:14;7969,98251125
10/07/2018 14:37:28;70518,4740153
10/07/2018 14:37:44;95510,6739963
10/07/2018 14:37:58;215762,63972
10/07/2018 14:38:14;17325,2831317
10/07/2018 14:38:28;68741,5650945
10/07/2018 14:38:44;7780,35489847
10/07/2018 14:38:58;375977,04645
10/07/2018 14:39:14;2798620,76304
10/07/2018 14:39:28;19209247,8637
10/07/2018 14:39:44;5356149,6768
10/07/2018 14:39:58;403222,360574
10/07/2018 14:40:14;1226677,22943
