minutos;valor
0.0;3627892736,0
16.0;3628011520,0
30.0;3636727808,0
46.0;3641720832,0
60.0;3640905728,0
76.0;3642216448,0
90.0;3385409536,0
106.0;3633750016,0
120.0;3411906560,0
136.0;3438014464,0
150.0;3454795776,0
166.0;3455332352,0
180.0;3469434880,0
196.0;3488817152,0
210.0;3489087488,0
226.0;3499180032,0
240.0;3507355648,0
256.0;3510124544,0
270.0;3529551872,0
286.0;3514621952,0
300.0;3516526592,0
316.0;3501498368,0
330.0;3486134272,0
346.0;3472908288,0
360.0;3483480064,0
376.0;3467939840,0
390.0;3479191552,0
406.0;3208589312,0
420.0;3158851584,0
