minutos;valor
0.0;0,80971659919
14.0;1,08254397835
30.0;1,0781671159
44.0;65,8634538153
60.0;85,1432378414
74.0;92,7903871829
90.0;89,6069287142
104.0;86,3909272849
120.0;92,871419054
134.0;90,0600400267
150.0;87,7251501001
164.0;90,473017988
180.0;90,9272848566
194.0;88,0
210.0;86,5333333333
224.0;83,5890593729
240.0;84,1333333333
254.0;86,2
270.0;90,0666666667
284.0;89,1927951968
300.0;87,4666666667
314.0;89,4
330.0;89,7931954636
344.0;86,6666666667
360.0;87,0752831446
374.0;87,0493991989
390.0;88,6075949367
404.0;91,7278185457
420.0;69,9061662198
