timestamp;valor
1.531267456e+12;0,401942723162
1.531267471e+12;0,234427327528
1.531267486e+12;0,786874267537
1.531267501e+12;0,268006700167
1.531267516e+12;0,402144772118
1.531267531e+12;32,327802916
1.531267546e+12;60,5761179032
1.531267561e+12;6,7647556232
1.531267576e+12;49,1334342924
1.531267591e+12;11,7548278757
