timestamp;valor
1.531267458e+12;17,499579337
1.531267473e+12;59,86565911
1.531267488e+12;86,9833333333
1.531267503e+12;83,5333333333
1.531267518e+12;88,1666666667
1.531267533e+12;85,0191634728
1.531267548e+12;87,0892410342
1.531267563e+12;86,4815124644
1.531267578e+12;47,4153897963
1.531267593e+12;18,1833501854
