timestamp;valor
1.531267446e+12;5368422400,0
1.531267461e+12;5369573376,0
1.531267478e+12;6464688128,0
1.531267492e+12;7412908032,0
1.531267508e+12;7958503424,0
1.531267523e+12;12092432384,0
1.531267537e+12;12957360128,0
1.531267552e+12;13071065088,0
1.531267567e+12;7545872384,0
1.531267582e+12;6277083136,0
