data;valor
10/07/2018 21:04:06;218,85766041
10/07/2018 21:04:21;5,73253007405
10/07/2018 21:04:38;2,08077901446
10/07/2018 21:04:52;4,99728826023
10/07/2018 21:05:08;8,36185810057
10/07/2018 21:05:23;31,700093587
10/07/2018 21:05:37;71,913805571
10/07/2018 21:05:52;10,8587954849
10/07/2018 21:06:07;67,1787154869
10/07/2018 21:06:22;67,5729626781
