data;valor
10/07/2018 21:04:18;1,66645160272
10/07/2018 21:04:33;6,53538191904
10/07/2018 21:04:48;2,53346511704
10/07/2018 21:05:03;4,26648333615
10/07/2018 21:05:18;2,39876068629
10/07/2018 21:05:33;5,660384042
10/07/2018 21:05:48;1,10710651617
10/07/2018 21:06:03;5,33459220966
10/07/2018 21:06:18;4,59812503986
10/07/2018 21:06:33;5,26892535321
