data;valor
10/07/2018 21:04:18;18446,8379871
10/07/2018 21:04:33;15765,9890777
10/07/2018 21:04:48;1894,47584478
10/07/2018 21:05:03;77863,923054
10/07/2018 21:05:18;2616516,41713
10/07/2018 21:05:33;9710959,4847
10/07/2018 21:05:48;6414908,61732
10/07/2018 21:06:03;756593,486982
10/07/2018 21:06:18;517832,439812
10/07/2018 21:06:33;1835,45368789
