minutos;valor
0.0;22,5244841166
15.0;24,6101539257
30.0;7,66282977676
45.0;4,59705961851
60.0;4,13700790284
75.0;14,1969359056
90.0;5,40181494952
105.0;9,19469729638
120.0;69,5244460172
135.0;33,3749203838
