minutos;valor
0.0;2,99613623171
15.0;4,55411700841
29.0;4,28459992308
44.0;6,10195386545
59.0;8,67108895381
74.0;11,4446079595
88.0;10,9820040069
104.0;36,4789431958
119.0;5,60653966442
135.0;7,60067023112
