minutos;valor
0.0;1,66645160272
15.0;6,53538191904
30.0;2,53346511704
45.0;4,26648333615
60.0;2,39876068629
75.0;5,660384042
90.0;1,10710651617
105.0;5,33459220966
120.0;4,59812503986
135.0;5,26892535321
