minutos;valor
0.0;1101,07352227
15.0;4001,60400571
30.0;14444,934138
45.0;16306,6122951
59.0;6531,4282657
74.0;734556,150632
90.0;3295416,9334
104.0;4513992,19913
121.0;4237641,50277
136.0;1117429,71114
