minutos;valor
0.0;12306,1000609
15.0;22086,1108386
29.0;9466,85970296
44.0;346159,340684
59.0;6494392,25767
74.0;20096842,6576
88.0;11796832,7052
104.0;1577902,78396
119.0;2061473,79028
135.0;298606,128331
