minutos;valor
0.0;0,401942723162
15.0;0,234427327528
30.0;0,786874267537
45.0;0,268006700167
60.0;0,402144772118
75.0;32,327802916
90.0;60,5761179032
105.0;6,7647556232
120.0;49,1334342924
135.0;11,7548278757
