timestamp;valor
1.531236052e+12;45845159,2956
1.531236066e+12;45858044,3577
1.531236082e+12;45861254,4542
1.531236096e+12;45860056,7157
1.531236112e+12;45848707,3303
1.531236126e+12;45866550,9088
1.531236142e+12;45850713,8064
1.531236156e+12;45860864,9542
1.531236172e+12;45860015,9733
1.531236186e+12;45847380,8138
1.531236202e+12;45861911,9486
1.531236216e+12;45857495,5278
1.531236232e+12;45861603,0328
1.531236246e+12;45859483,3848
1.531236262e+12;3686,70267726
1.531236276e+12;16615,1654733
1.531236292e+12;15412,7851257
1.531236306e+12;6912,36022982
1.531236322e+12;20695,7239601
1.531236336e+12;12025529,827
1.531236352e+12;11440334,884
