data;valor
10/07/2018 12:21:02;29,2042878648
10/07/2018 12:21:18;6,66650359301
10/07/2018 12:21:32;8,13148615729
10/07/2018 12:21:48;7,80108688753
10/07/2018 12:22:02;5,73218915437
10/07/2018 12:22:18;4,73427429312
10/07/2018 12:22:32;5,86647995273
10/07/2018 12:22:48;4,73336130143
10/07/2018 12:23:02;3,46613746065
10/07/2018 12:23:18;7,66688179567
10/07/2018 12:23:32;3,19988142547
10/07/2018 12:23:48;6,59523355035
10/07/2018 12:24:02;3,46828378161
10/07/2018 12:24:18;9,66168522342
10/07/2018 12:24:32;2,80063326566
10/07/2018 12:24:48;7,39913313909
10/07/2018 12:25:02;5,86770183843
10/07/2018 12:25:18;10,5317360122
10/07/2018 12:25:32;5,79815693631
10/07/2018 12:25:48;2,46706987931
