data;valor
10/07/2018 12:21:02;21442,5613192
10/07/2018 12:21:18;11720,2489375
10/07/2018 12:21:32;11432,2309809
10/07/2018 12:21:48;11192,7259295
10/07/2018 12:22:02;11236,1466194
10/07/2018 12:22:18;12615,0758294
10/07/2018 12:22:32;12552,1861643
10/07/2018 12:22:48;13086,0884322
10/07/2018 12:23:02;11948,9143506
10/07/2018 12:23:18;20787,8851858
10/07/2018 12:23:32;14079,9162793
10/07/2018 12:23:48;11805,5263741
10/07/2018 12:24:02;14086,2137334
10/07/2018 12:24:18;11774,8874021
10/07/2018 12:24:32;11217,3715272
10/07/2018 12:24:48;13643,1356134
10/07/2018 12:25:02;11632,9871025
10/07/2018 12:25:18;8945,69947485
10/07/2018 12:25:32;6039,74607146
10/07/2018 12:25:48;6563,18863377
