data;valor
10/07/2018 12:20:52;45845159,2956
10/07/2018 12:21:06;45858044,3577
10/07/2018 12:21:22;45861254,4542
10/07/2018 12:21:36;45860056,7157
10/07/2018 12:21:52;45848707,3303
10/07/2018 12:22:06;45866550,9088
10/07/2018 12:22:22;45850713,8064
10/07/2018 12:22:36;45860864,9542
10/07/2018 12:22:52;45860015,9733
10/07/2018 12:23:06;45847380,8138
10/07/2018 12:23:22;45861911,9486
10/07/2018 12:23:36;45857495,5278
10/07/2018 12:23:52;45861603,0328
10/07/2018 12:24:06;45859483,3848
10/07/2018 12:24:22;3686,70267726
10/07/2018 12:24:36;16615,1654733
10/07/2018 12:24:52;15412,7851257
10/07/2018 12:25:06;6912,36022982
10/07/2018 12:25:22;20695,7239601
10/07/2018 12:25:36;12025529,827
10/07/2018 12:25:52;11440334,884
