minutos;valor
0.0;198,017181087
16.0;198,683578998
30.0;286,933421061
46.0;549,84050537
60.0;1077,6679424
76.0;200,145044421
90.0;1057,3906593
106.0;580,972101256
120.0;411,988633044
136.0;1229,45068706
150.0;201,066501057
166.0;875,487064002
180.0;766,23198499
196.0;292,902113596
210.0;1063,53197798
226.0;102,150728076
240.0;443,430126836
256.0;830,592594334
270.0;188,787544032
286.0;677,945730113
300.0;99,8698680295
