timestamp;valor
1.531252966e+12;11,2412177986
1.531252981e+12;81,1497326203
1.531252996e+12;90,5603735824
1.531253011e+12;92,2897196262
1.531253026e+12;94,2942942943
1.531253041e+12;68,001334668
1.531253056e+12;28,9719626168
