timestamp;valor
1.531252966e+12;1962,00986397
1.531252981e+12;17092,4990075
1.531252996e+12;53302,9590318
1.531253011e+12;96859,0320846
1.531253026e+12;93792,5331517
1.531253041e+12;8821029,43236
1.531253056e+12;17903565,2805
