data;valor
10/07/2018 17:02:46;0,534402137609
10/07/2018 17:03:01;47,1237458194
10/07/2018 17:03:16;91,5
10/07/2018 17:03:31;95,4681772742
10/07/2018 17:03:46;94,0333333333
10/07/2018 17:04:01;26,7558528428
10/07/2018 17:04:16;79,6463129796
