timestamp;valor
1.531247931e+12;3571884032,0
1.531247946e+12;3589492736,0
1.531247961e+12;3626754048,0
1.531247976e+12;3617886208,0
1.531247991e+12;3593945088,0
1.531248006e+12;3547123712,0
1.531248021e+12;3541708800,0
1.531248036e+12;3543736320,0
1.531248051e+12;3564523520,0
1.531248066e+12;3571494912,0
1.531248081e+12;3572293632,0
1.531248096e+12;3601215488,0
1.531248111e+12;3601485824,0
1.531248126e+12;3626065920,0
1.531248141e+12;3552464896,0
1.531248156e+12;3553079296,0
1.531248171e+12;3554684928,0
1.531248186e+12;3556876288,0
