timestamp;valor
1.531247924e+12;8,84499876849
1.531247939e+12;3,06681170408
1.531247954e+12;3,93347363549
1.531247969e+12;61,1255247762
1.531247984e+12;235,036697247
1.531247999e+12;700,278276523
1.531248014e+12;55,640883355
1.531248029e+12;149,424073523
1.531248044e+12;782,406348614
1.531248059e+12;98,6854374081
1.531248074e+12;141,706024784
1.531248089e+12;394,994753475
1.531248104e+12;67,7898129968
1.531248119e+12;5,63242717185
1.531248134e+12;23,7174449093
1.531248149e+12;6,01365643229
1.531248164e+12;18,358846508
1.531248179e+12;6,52583420708
