timestamp;valor
1.531247928e+12;959,995654727
1.531247943e+12;10184,4952164
1.531247958e+12;31540,1031028
1.531247973e+12;2050,1931705
1.531247988e+12;3617,22817099
1.531248003e+12;321997,819709
1.531248018e+12;2350,69689783
1.531248033e+12;35926,1293282
1.531248048e+12;57422,8865479
1.531248063e+12;657789,22878
1.531248078e+12;12902,9504281
1.531248093e+12;185678,867688
1.531248108e+12;77858,7872157
1.531248123e+12;74626,8872135
1.531248138e+12;156439,031253
1.531248153e+12;1647919,94281
1.531248168e+12;12594,6868406
1.531248183e+12;74401,2323985
