timestamp;valor
1.531247929e+12;1,01282916948
1.531247944e+12;1,28465179175
1.531247959e+12;25,6720430108
1.531247974e+12;88,5333333333
1.531247989e+12;87,8666666667
1.531248004e+12;90,6666666667
1.531248019e+12;88,6666666667
1.531248034e+12;89,3333333333
1.531248049e+12;67,9598662207
1.531248064e+12;7,12347354138
1.531248079e+12;4,60081190798
1.531248094e+12;4,87144790257
1.531248109e+12;5,74324324324
1.531248124e+12;5,62330623306
1.531248139e+12;4,19769803656
1.531248154e+12;5,2027027027
1.531248169e+12;58,6577181208
1.531248184e+12;22,8648285138
