timestamp;valor
1.531247932e+12;3640492032,0
1.531247947e+12;3641253888,0
1.531247962e+12;3628122112,0
1.531247977e+12;3640016896,0
1.531247992e+12;3636310016,0
1.531248007e+12;3100217344,0
1.531248022e+12;3451121664,0
1.531248037e+12;3621253120,0
1.531248052e+12;3069743104,0
1.531248067e+12;3402956800,0
1.531248082e+12;3642802176,0
1.531248097e+12;3120648192,0
1.531248112e+12;3626225664,0
1.531248127e+12;3627114496,0
1.531248142e+12;3129737216,0
1.531248157e+12;3246403584,0
1.531248172e+12;3162255360,0
1.531248187e+12;2948648960,0
