data;valor
10/07/2018 15:38:52;3640492032,0
10/07/2018 15:39:07;3641253888,0
10/07/2018 15:39:22;3628122112,0
10/07/2018 15:39:37;3640016896,0
10/07/2018 15:39:52;3636310016,0
10/07/2018 15:40:07;3100217344,0
10/07/2018 15:40:22;3451121664,0
10/07/2018 15:40:37;3621253120,0
10/07/2018 15:40:52;3069743104,0
10/07/2018 15:41:07;3402956800,0
10/07/2018 15:41:22;3642802176,0
10/07/2018 15:41:37;3120648192,0
10/07/2018 15:41:52;3626225664,0
10/07/2018 15:42:07;3627114496,0
10/07/2018 15:42:22;3129737216,0
10/07/2018 15:42:37;3246403584,0
10/07/2018 15:42:52;3162255360,0
10/07/2018 15:43:07;2948648960,0
