data;valor
10/07/2018 15:38:48;8,28167801422
10/07/2018 15:39:03;5,61406752814
10/07/2018 15:39:18;5,54053977929
10/07/2018 15:39:33;14,0442047686
10/07/2018 15:39:48;9,48969954621
10/07/2018 15:40:03;7,88913591439
10/07/2018 15:40:18;6,81788417448
10/07/2018 15:40:33;32,4516028722
10/07/2018 15:40:48;7,5765800086
10/07/2018 15:41:03;3,2149347727
10/07/2018 15:41:18;29,3288614564
10/07/2018 15:41:33;6,34999777359
10/07/2018 15:41:48;3,87025951662
10/07/2018 15:42:03;23,7377375078
10/07/2018 15:42:18;20,6523522221
10/07/2018 15:42:33;13,8260223682
10/07/2018 15:42:48;20,7034069277
10/07/2018 15:43:03;4,21322711254
