data;valor
10/07/2018 15:38:52;1,14632501686
10/07/2018 15:39:07;1,61725067385
10/07/2018 15:39:22;40,5660377359
10/07/2018 15:39:37;86,9333333333
10/07/2018 15:39:52;90,1201602136
10/07/2018 15:40:07;90,0
10/07/2018 15:40:22;88,0587058039
10/07/2018 15:40:37;90,0
10/07/2018 15:40:52;89,7931954636
10/07/2018 15:41:07;88,0079946702
10/07/2018 15:41:22;90,4
10/07/2018 15:41:37;88,9185580774
10/07/2018 15:41:52;85,8094603598
10/07/2018 15:42:07;93,1954636424
10/07/2018 15:42:22;89,4596397598
10/07/2018 15:42:37;60,7645875252
10/07/2018 15:42:52;78,7959866221
10/07/2018 15:43:07;4,53622207177
