minutos;valor
0.0;9,54301075269
15.0;61,3011401744
30.0;83,4002677376
45.0;88,1254169446
60.0;88,5256837892
75.0;86,5243495664
90.0;89,0
105.0;84,9031396126
120.0;90,3397734843
135.0;68,9932885906
150.0;7,76038121171
165.0;12,0408163265
180.0;5,58202859088
195.0;6,99253224711
210.0;9,12185159973
225.0;6,60313138189
240.0;47,8759271746
255.0;60,0
