minutos;valor
0.0;6,33266123216
15.0;4,55403590931
30.0;11,269651819
45.0;11,4481749067
60.0;6,35035576859
75.0;8,48357420355
90.0;7,59689359954
105.0;7,98416444766
120.0;8,06796414684
135.0;7,46368049002
150.0;3,20019931445
165.0;12,4220803703
180.0;3,1444028342
195.0;4,53297314048
210.0;2,79981504205
225.0;3,99225733392
240.0;2,85110331577
255.0;5,03842137885
